<svg width="72" height="72" viewBox="0 0 72 72" fill="none" xmlns="http://www.w3.org/2000/svg">
<g id="Group 14">
<path id="Star" fill-rule="evenodd" clip-rule="evenodd" d="M36 49L20.7176 57.0344L23.6363 40.0172L11.2725 27.9656L28.3588 25.4828L36 10L43.6412 25.4828L60.7275 27.9656L48.3637 40.0172L51.2824 57.0344L36 49Z" fill="#E80000"/>
<path id="Star_2" fill-rule="evenodd" clip-rule="evenodd" d="M29.5 47.2583L12.2478 46.5752L23.2841 33.2971L18.6026 16.6782L34.6411 23.0712L49 13.4833L47.8761 30.7124L61.4318 41.4057L44.6987 45.6609L38.7177 61.8576L29.5 47.2583Z" fill="#E80000"/>
</g>
</svg>
