<svg width="28" height="28" viewBox="0 0 28 28" fill="none" xmlns="http://www.w3.org/2000/svg">
<g id="Group 18 Copy">
<path id="Oval" fill-rule="evenodd" clip-rule="evenodd" d="M14 28C21.732 28 28 21.732 28 14C28 6.26801 21.732 0 14 0C6.26801 0 0 6.26801 0 14C0 21.732 6.26801 28 14 28Z" fill="#7F40BD"/>
<g id="viber">
<path id="Path" fill-rule="evenodd" clip-rule="evenodd" d="M18.9392 14.4055C18.961 11.9494 16.7876 9.69792 14.0944 9.38656C14.0409 9.38044 13.9825 9.37115 13.9208 9.36128C13.7874 9.34002 13.6496 9.31818 13.5105 9.31818C12.9585 9.31818 12.8109 9.69135 12.7721 9.91393C12.7343 10.1303 12.7704 10.312 12.879 10.4543C13.0618 10.6935 13.3834 10.736 13.6417 10.77C13.7175 10.7801 13.7889 10.7895 13.8487 10.8024C16.2684 11.3228 17.0832 12.1409 17.4813 14.45C17.4911 14.5064 17.4955 14.576 17.5001 14.6497C17.5175 14.9257 17.5537 15.5 18.1951 15.5H18.1952C18.2486 15.5 18.306 15.4956 18.3657 15.4868C18.9631 15.3994 18.9444 14.8745 18.9354 14.6223C18.9328 14.5512 18.9304 14.484 18.9367 14.4394C18.9383 14.4281 18.9392 14.4168 18.9392 14.4055Z" fill="white"/>
<path id="Path_2" fill-rule="evenodd" clip-rule="evenodd" d="M14.1128 7.63547C14.1837 7.6404 14.251 7.64512 14.3069 7.65338C18.2414 8.23651 20.0508 10.033 20.5523 13.8544C20.5608 13.9193 20.5621 13.9985 20.5635 14.0824C20.5685 14.381 20.5788 15.0021 21.271 15.0149L21.2925 15.0151C21.5095 15.0151 21.6822 14.9521 21.8057 14.8275C22.0212 14.6103 22.0061 14.2877 21.994 14.0284C21.9911 13.9648 21.9882 13.9049 21.9889 13.8524C22.0389 9.94413 18.5285 6.40013 14.4767 6.26836C14.4599 6.26782 14.4438 6.2687 14.4276 6.27089C14.4197 6.27201 14.4049 6.27342 14.3796 6.27342C14.3392 6.27342 14.2895 6.27005 14.2368 6.26661C14.1731 6.26239 14.1008 6.25757 14.0276 6.25757C13.3823 6.25757 13.2597 6.69955 13.244 6.96302C13.2078 7.57195 13.819 7.61479 14.1128 7.63547Z" fill="white"/>
<path id="Path_3" fill-rule="evenodd" clip-rule="evenodd" d="M20.4013 18.5004C20.3199 18.4386 20.2356 18.3745 20.1568 18.3114C19.7385 17.9768 19.2934 17.6683 18.863 17.37C18.7736 17.3082 18.6843 17.2463 18.5953 17.1842C18.0439 16.7993 17.5483 16.6122 17.0799 16.6122C16.4492 16.6122 15.8992 16.9586 15.4454 17.6417C15.2443 17.9445 15.0003 18.0918 14.6996 18.0918C14.5219 18.0918 14.3198 18.0413 14.0993 17.9418C12.3196 17.1397 11.0488 15.9098 10.3221 14.2863C9.97085 13.5016 10.0847 12.9888 10.703 12.5713C11.0541 12.3345 11.7075 11.8935 11.6612 11.0492C11.6088 10.0904 9.48039 7.20534 8.58358 6.87769C8.2039 6.7389 7.80496 6.73761 7.39573 6.87447C6.36475 7.21896 5.62492 7.82394 5.25602 8.62389C4.89952 9.39687 4.91561 10.3045 5.30258 11.2486C6.42123 13.9783 7.99398 16.3582 9.97733 18.3222C11.9187 20.2447 14.3048 21.8195 17.0692 23.0027C17.3184 23.1092 17.5798 23.1674 17.7706 23.2098C17.8356 23.2243 17.8918 23.2367 17.9327 23.2479C17.9552 23.254 17.9784 23.2572 18.0017 23.2575L18.0235 23.2576C18.0236 23.2576 18.0235 23.2576 18.0236 23.2576C19.3238 23.2576 20.8851 22.0766 21.3645 20.7302C21.7846 19.5513 21.0176 18.9686 20.4013 18.5004Z" fill="white"/>
<path id="Path_4" fill-rule="evenodd" clip-rule="evenodd" d="M13.6783 12.3793C13.4504 12.3849 12.9761 12.3963 12.8097 12.8657C12.7319 13.085 12.7412 13.2754 12.8375 13.4317C12.9787 13.6609 13.2495 13.7312 13.4957 13.7698C14.3886 13.909 14.8471 14.3887 14.9388 15.2795C14.9814 15.6948 15.2693 15.9848 15.6388 15.9848H15.6389C15.6662 15.9848 15.6941 15.9833 15.7219 15.98C16.1664 15.9286 16.3819 15.6113 16.3624 15.037C16.3695 14.4375 16.0467 13.757 15.4976 13.215C14.9466 12.6713 14.2824 12.3651 13.6783 12.3793Z" fill="white"/>
</g>
</g>
</svg>
